[{"userId": 1,
  "userPfpUrl": "https://mighty.tools/mockmind-api/content/human/65.jpg",
  "postId": 9,
  "postImgUrl": "https://picsum.photos/400",
  "postTitle": "nesciunt iure omnis dolorem tempora et accusantium",
  "postBody": "consectetur animi nesciunt iure dolore\nenim quia ad\nveniam autem ut quam aut nobis\net est aut quod aut provident voluptas autem voluptas"},
 {"userId": 6,
  "userPfpUrl": "https://mighty.tools/mockmind-api/content/human/70.jpg",
  "postId": 58,
  "postImgUrl": "https://picsum.photos/400",
  "postTitle": "voluptatum itaque dolores nisi et quasi",
  "postBody": "veniam voluptatum quae adipisci id\net id quia eos ad et dolorem\naliquam quo nisi sunt eos impedit error\nad similique veniam"},
 {"userId": 3,
  "userPfpUrl": "https://mighty.tools/mockmind-api/content/human/67.jpg",
  "postId": 29,
  "postImgUrl": "https://picsum.photos/400",
  "postTitle": "iusto eius quod necessitatibus culpa ea",
  "postBody": "odit magnam ut saepe sed non qui\ntempora atque nihil\naccusamus illum doloribus illo dolor\neligendi repudiandae odit magni similique sed cum maiores"},
 {"userId": 8,
  "userPfpUrl": "https://mighty.tools/mockmind-api/content/human/72.jpg",
  "postId": 73,
  "postImgUrl": "https://picsum.photos/400",
  "postTitle": "consequuntur deleniti eos quia temporibus ab aliquid at",
  "postBody": "voluptatem cumque tenetur consequatur expedita ipsum nemo quia explicabo\naut eum minima consequatur\ntempore cumque quae est et\net in consequuntur voluptatem voluptates aut"},
 {"userId": 7,
  "userPfpUrl": "https://mighty.tools/mockmind-api/content/human/71.jpg",
  "postId": 65,
  "postImgUrl": "https://picsum.photos/400",
  "postTitle": "consequatur id enim sunt et et",
  "postBody": "voluptatibus ex esse\nsint explicabo est aliquid cumque adipisci fuga repellat labore\nmolestiae corrupti ex saepe at asperiores et perferendis\nnatus id esse incidunt pariatur"},
 {"userId": 6,
  "userPfpUrl": "https://mighty.tools/mockmind-api/content/human/70.jpg",
  "postId": 53,
  "postImgUrl": "https://picsum.photos/400",
  "postTitle": "ut quo aut ducimus alias",
  "postBody": "minima harum praesentium eum rerum illo dolore\nquasi exercitationem rerum nam\nporro quis neque quo\nconsequatur minus dolor quidem veritatis sunt non explicabo similique"},
 {"userId": 2,
  "userPfpUrl": "https://mighty.tools/mockmind-api/content/human/66.jpg",
  "postId": 16,
  "postImgUrl": "https://picsum.photos/400",
  "postTitle": "sint suscipit perspiciatis velit dolorum rerum ipsa laboriosam odio",
  "postBody": "suscipit nam nisi quo aperiam aut\nasperiores eos fugit maiores voluptatibus quia\nvoluptatem quis ullam qui in alias quia est\nconsequatur magni mollitia accusamus ea nisi voluptate dicta"},
 {"userId": 6,
  "userPfpUrl": "https://mighty.tools/mockmind-api/content/human/70.jpg",
  "postId": 52,
  "postImgUrl": "https://picsum.photos/400",
  "postTitle": "qui enim et consequuntur quia animi quis voluptate quibusdam",
  "postBody": "iusto est quibusdam fuga quas quaerat molestias\na enim ut sit accusamus enim\ntemporibus iusto accusantium provident architecto\nsoluta esse reprehenderit qui laborum"},
 {"userId": 8,
  "userPfpUrl": "https://mighty.tools/mockmind-api/content/human/72.jpg",
  "postId": 78,
  "postImgUrl": "https://picsum.photos/400",
  "postTitle": "quam voluptatibus rerum veritatis",
  "postBody": "nobis facilis odit tempore cupiditate quia\nassumenda doloribus rerum qui ea\nillum et qui totam\naut veniam repellendus"},
 {"userId": 3,
  "userPfpUrl": "https://mighty.tools/mockmind-api/content/human/67.jpg",
  "postId": 30,
  "postImgUrl": "https://picsum.photos/400",
  "postTitle": "a quo magni similique perferendis",
  "postBody": "alias dolor cumque\nimpedit blanditiis non eveniet odio maxime\nblanditiis amet eius quis tempora quia autem rem\na provident perspiciatis quia"},
 {"userId": 10,
  "userPfpUrl": "https://mighty.tools/mockmind-api/content/human/74.jpg",
  "postId": 93,
  "postImgUrl": "https://picsum.photos/400",
  "postTitle": "beatae soluta recusandae",
  "postBody": "dolorem quibusdam ducimus consequuntur dicta aut quo laboriosam\nvoluptatem quis enim recusandae ut sed sunt\nnostrum est odit totam\nsit error sed sunt eveniet provident qui nulla"},
 {"userId": 3,
  "userPfpUrl": "https://mighty.tools/mockmind-api/content/human/67.jpg",
  "postId": 28,
  "postImgUrl": "https://picsum.photos/400",
  "postTitle": "delectus ullam et corporis nulla voluptas sequi",
  "postBody": "non et quaerat ex quae ad maiores\nmaiores recusandae totam aut blanditiis mollitia quas illo\nut voluptatibus voluptatem\nsimilique nostrum eum"},
 {"userId": 7,
  "userPfpUrl": "https://mighty.tools/mockmind-api/content/human/71.jpg",
  "postId": 61,
  "postImgUrl": "https://picsum.photos/400",
  "postTitle": "voluptatem doloribus consectetur est ut ducimus",
  "postBody": "ab nemo optio odio\ndelectus tenetur corporis similique nobis repellendus rerum omnis facilis\nvero blanditiis debitis in nesciunt doloribus dicta dolores\nmagnam minus velit"},
 {"userId": 9,
  "userPfpUrl": "https://mighty.tools/mockmind-api/content/human/73.jpg",
  "postId": 81,
  "postImgUrl": "https://picsum.photos/400",
  "postTitle": "tempora rem veritatis voluptas quo dolores vero",
  "postBody": "facere qui nesciunt est voluptatum voluptatem nisi\nsequi eligendi necessitatibus ea at rerum itaque\nharum non ratione velit laboriosam quis consequuntur\nex officiis minima doloremque voluptas ut aut"},
 {"userId": 2,
  "userPfpUrl": "https://mighty.tools/mockmind-api/content/human/66.jpg",
  "postId": 12,
  "postImgUrl": "https://picsum.photos/400",
  "postTitle": "in quibusdam tempore odit est dolorem",
  "postBody": "itaque id aut magnam\npraesentium quia et ea odit et ea voluptas et\nsapiente quia nihil amet occaecati quia id voluptatem\nincidunt ea est distinctio odio"},
 {"userId": 3,
  "userPfpUrl": "https://mighty.tools/mockmind-api/content/human/67.jpg",
  "postId": 24,
  "postImgUrl": "https://picsum.photos/400",
  "postTitle": "autem hic labore sunt dolores incidunt",
  "postBody": "enim et ex nulla\nomnis voluptas quia qui\nvoluptatem consequatur numquam aliquam sunt\ntotam recusandae id dignissimos aut sed asperiores deserunt"},
 {"userId": 9,
  "userPfpUrl": "https://mighty.tools/mockmind-api/content/human/73.jpg",
  "postId": 85,
  "postImgUrl": "https://picsum.photos/400",
  "postTitle": "dolore veritatis porro provident adipisci blanditiis et sunt",
  "postBody": "similique sed nisi voluptas iusto omnis\nmollitia et quo\nassumenda suscipit officia magnam sint sed tempora\nenim provident pariatur praesentium atque animi amet ratione"},
 {"userId": 2,
  "userPfpUrl": "https://mighty.tools/mockmind-api/content/human/66.jpg",
  "postId": 18,
  "postImgUrl": "https://picsum.photos/400",
  "postTitle": "voluptate et itaque vero tempora molestiae",
  "postBody": "eveniet quo quis\nlaborum totam consequatur non dolor\nut et est repudiandae\nest voluptatem vel debitis et magnam"},
 {"userId": 10,
  "userPfpUrl": "https://mighty.tools/mockmind-api/content/human/74.jpg",
  "postId": 96,
  "postImgUrl": "https://picsum.photos/400",
  "postTitle": "quaerat velit veniam amet cupiditate aut numquam ut sequi",
  "postBody": "in non odio excepturi sint eum\nlabore voluptates vitae quia qui et\ninventore itaque rerum\nveniam non exercitationem delectus aut"},
 {"userId": 5,
  "userPfpUrl": "https://mighty.tools/mockmind-api/content/human/69.jpg",
  "postId": 47,
  "postImgUrl": "https://picsum.photos/400",
  "postTitle": "quibusdam cumque rem aut deserunt",
  "postBody": "voluptatem assumenda ut qui ut cupiditate aut impedit veniam\noccaecati nemo illum voluptatem laudantium\nmolestiae beatae rerum ea iure soluta nostrum\neligendi et voluptate"},
 {"userId": 1,
  "userPfpUrl": "https://mighty.tools/mockmind-api/content/human/65.jpg",
  "postId": 7,
  "postImgUrl": "https://picsum.photos/400",
  "postTitle": "magnam facilis autem",
  "postBody": "dolore placeat quibusdam ea quo vitae\nmagni quis enim qui quis quo nemo aut saepe\nquidem repellat excepturi ut quia\nsunt ut sequi eos ea sed quas"},
 {"userId": 1,
  "userPfpUrl": "https://mighty.tools/mockmind-api/content/human/65.jpg",
  "postId": 6,
  "postImgUrl": "https://picsum.photos/400",
  "postTitle": "dolorem eum magni eos aperiam quia",
  "postBody": "ut aspernatur corporis harum nihil quis provident sequi\nmollitia nobis aliquid molestiae\nperspiciatis et ea nemo ab reprehenderit accusantium quas\nvoluptate dolores velit et doloremque molestiae"},
 {"userId": 9,
  "userPfpUrl": "https://mighty.tools/mockmind-api/content/human/73.jpg",
  "postId": 86,
  "postImgUrl": "https://picsum.photos/400",
  "postTitle": "placeat quia et porro iste",
  "postBody": "quasi excepturi consequatur iste autem temporibus sed molestiae beatae\net quaerat et esse ut\nvoluptatem occaecati et vel explicabo autem\nasperiores pariatur deserunt optio"},
 {"userId": 5,
  "userPfpUrl": "https://mighty.tools/mockmind-api/content/human/69.jpg",
  "postId": 44,
  "postImgUrl": "https://picsum.photos/400",
  "postTitle": "optio dolor molestias sit",
  "postBody": "temporibus est consectetur dolore\net libero debitis vel velit laboriosam quia\nipsum quibusdam qui itaque fuga rem aut\nea et iure quam sed maxime ut distinctio quae"},
 {"userId": 3,
  "userPfpUrl": "https://mighty.tools/mockmind-api/content/human/67.jpg",
  "postId": 26,
  "postImgUrl": "https://picsum.photos/400",
  "postTitle": "est et quae odit qui non",
  "postBody": "similique esse doloribus nihil accusamus\nomnis dolorem fuga consequuntur reprehenderit fugit recusandae temporibus\nperspiciatis cum ut laudantium\nomnis aut molestiae vel vero"},
 {"userId": 6,
  "userPfpUrl": "https://mighty.tools/mockmind-api/content/human/70.jpg",
  "postId": 56,
  "postImgUrl": "https://picsum.photos/400",
  "postTitle": "qui et at rerum necessitatibus",
  "postBody": "aut est omnis dolores\nneque rerum quod ea rerum velit pariatur beatae excepturi\net provident voluptas corrupti\ncorporis harum reprehenderit dolores eligendi"},
 {"userId": 7,
  "userPfpUrl": "https://mighty.tools/mockmind-api/content/human/71.jpg",
  "postId": 63,
  "postImgUrl": "https://picsum.photos/400",
  "postTitle": "voluptas blanditiis repellendus animi ducimus error sapiente et suscipit",
  "postBody": "enim adipisci aspernatur nemo\nnumquam omnis facere dolorem dolor ex quis temporibus incidunt\nab delectus culpa quo reprehenderit blanditiis asperiores\naccusantium ut quam in voluptatibus voluptas ipsam dicta"},
 {"userId": 6,
  "userPfpUrl": "https://mighty.tools/mockmind-api/content/human/70.jpg",
  "postId": 57,
  "postImgUrl": "https://picsum.photos/400",
  "postTitle": "sed ab est est",
  "postBody": "at pariatur consequuntur earum quidem\nquo est laudantium soluta voluptatem\nqui ullam et est\net cum voluptas voluptatum repellat est"},
 {"userId": 5,
  "userPfpUrl": "https://mighty.tools/mockmind-api/content/human/69.jpg",
  "postId": 50,
  "postImgUrl": "https://picsum.photos/400",
  "postTitle": "repellendus qui recusandae incidunt voluptates tenetur qui omnis exercitationem",
  "postBody": "error suscipit maxime adipisci consequuntur recusandae\nvoluptas eligendi et est et voluptates\nquia distinctio ab amet quaerat molestiae et vitae\nadipisci impedit sequi nesciunt quis consectetur"},
 {"userId": 2,
  "userPfpUrl": "https://mighty.tools/mockmind-api/content/human/66.jpg",
  "postId": 19,
  "postImgUrl": "https://picsum.photos/400",
  "postTitle": "adipisci placeat illum aut reiciendis qui",
  "postBody": "illum quis cupiditate provident sit magnam\nea sed aut omnis\nveniam maiores ullam consequatur atque\nadipisci quo iste expedita sit quos voluptas"},
 {"userId": 3,
  "userPfpUrl": "https://mighty.tools/mockmind-api/content/human/67.jpg",
  "postId": 25,
  "postImgUrl": "https://picsum.photos/400",
  "postTitle": "rem alias distinctio quo quis",
  "postBody": "ullam consequatur ut\nomnis quis sit vel consequuntur\nipsa eligendi ipsum molestiae et omnis error nostrum\nmolestiae illo tempore quia et distinctio"},
 {"userId": 1,
  "userPfpUrl": "https://mighty.tools/mockmind-api/content/human/65.jpg",
  "postId": 3,
  "postImgUrl": "https://picsum.photos/400",
  "postTitle": "ea molestias quasi exercitationem repellat qui ipsa sit aut",
  "postBody": "et iusto sed quo iure\nvoluptatem occaecati omnis eligendi aut ad\nvoluptatem doloribus vel accusantium quis pariatur\nmolestiae porro eius odio et labore et velit aut"},
 {"userId": 4,
  "userPfpUrl": "https://mighty.tools/mockmind-api/content/human/68.jpg",
  "postId": 35,
  "postImgUrl": "https://picsum.photos/400",
  "postTitle": "id nihil consequatur molestias animi provident",
  "postBody": "nisi error delectus possimus ut eligendi vitae\nplaceat eos harum cupiditate facilis reprehenderit voluptatem beatae\nmodi ducimus quo illum voluptas eligendi\net nobis quia fugit"},
 {"userId": 10,
  "userPfpUrl": "https://mighty.tools/mockmind-api/content/human/74.jpg",
  "postId": 97,
  "postImgUrl": "https://picsum.photos/400",
  "postTitle": "quas fugiat ut perspiciatis vero provident",
  "postBody": "eum non blanditiis soluta porro quibusdam voluptas\nvel voluptatem qui placeat dolores qui velit aut\nvel inventore aut cumque culpa explicabo aliquid at\nperspiciatis est et voluptatem dignissimos dolor itaque sit nam"},
 {"userId": 1,
  "userPfpUrl": "https://mighty.tools/mockmind-api/content/human/65.jpg",
  "postId": 2,
  "postImgUrl": "https://picsum.photos/400",
  "postTitle": "qui est esse",
  "postBody": "est rerum tempore vitae\nsequi sint nihil reprehenderit dolor beatae ea dolores neque\nfugiat blanditiis voluptate porro vel nihil molestiae ut reiciendis\nqui aperiam non debitis possimus qui neque nisi nulla"},
 {"userId": 1,
  "userPfpUrl": "https://mighty.tools/mockmind-api/content/human/65.jpg",
  "postId": 1,
  "postImgUrl": "https://picsum.photos/400",
  "postTitle": "sunt aut facere repellat provident occaecati excepturi optio reprehenderit",
  "postBody": "quia et suscipit\nsuscipit recusandae consequuntur expedita et cum\nreprehenderit molestiae ut ut quas totam\nnostrum rerum est autem sunt rem eveniet architecto"},
 {"userId": 6,
  "userPfpUrl": "https://mighty.tools/mockmind-api/content/human/70.jpg",
  "postId": 54,
  "postImgUrl": "https://picsum.photos/400",
  "postTitle": "sit asperiores ipsam eveniet odio non quia",
  "postBody": "totam corporis dignissimos\nvitae dolorem ut occaecati accusamus\nex velit deserunt\net exercitationem vero incidunt corrupti mollitia"},
 {"userId": 8,
  "userPfpUrl": "https://mighty.tools/mockmind-api/content/human/72.jpg",
  "postId": 76,
  "postImgUrl": "https://picsum.photos/400",
  "postTitle": "doloremque officiis ad et non perferendis",
  "postBody": "ut animi facere\ntotam iusto tempore\nmolestiae eum aut et dolorem aperiam\nquaerat recusandae totam odio"},
 {"userId": 5,
  "userPfpUrl": "https://mighty.tools/mockmind-api/content/human/69.jpg",
  "postId": 46,
  "postImgUrl": "https://picsum.photos/400",
  "postTitle": "aut quo modi neque nostrum ducimus",
  "postBody": "voluptatem quisquam iste\nvoluptatibus natus officiis facilis dolorem\nquis quas ipsam\nvel et voluptatum in aliquid"},
 {"userId": 3,
  "userPfpUrl": "https://mighty.tools/mockmind-api/content/human/67.jpg",
  "postId": 23,
  "postImgUrl": "https://picsum.photos/400",
  "postTitle": "maxime id vitae nihil numquam",
  "postBody": "veritatis unde neque eligendi\nquae quod architecto quo neque vitae\nest illo sit tempora doloremque fugit quod\net et vel beatae sequi ullam sed tenetur perspiciatis"},
 {"userId": 1,
  "userPfpUrl": "https://mighty.tools/mockmind-api/content/human/65.jpg",
  "postId": 5,
  "postImgUrl": "https://picsum.photos/400",
  "postTitle": "nesciunt quas odio",
  "postBody": "repudiandae veniam quaerat sunt sed\nalias aut fugiat sit autem sed est\nvoluptatem omnis possimus esse voluptatibus quis\nest aut tenetur dolor neque"},
 {"userId": 4,
  "userPfpUrl": "https://mighty.tools/mockmind-api/content/human/68.jpg",
  "postId": 34,
  "postImgUrl": "https://picsum.photos/400",
  "postTitle": "magnam ut rerum iure",
  "postBody": "ea velit perferendis earum ut voluptatem voluptate itaque iusto\ntotam pariatur in\nnemo voluptatem voluptatem autem magni tempora minima in\nest distinctio qui assumenda accusamus dignissimos officia nesciunt nobis"},
 {"userId": 7,
  "userPfpUrl": "https://mighty.tools/mockmind-api/content/human/71.jpg",
  "postId": 70,
  "postImgUrl": "https://picsum.photos/400",
  "postTitle": "voluptatem laborum magni",
  "postBody": "sunt repellendus quae\nest asperiores aut deleniti esse accusamus repellendus quia aut\nquia dolorem unde\neum tempora esse dolore"},
 {"userId": 5,
  "userPfpUrl": "https://mighty.tools/mockmind-api/content/human/69.jpg",
  "postId": 48,
  "postImgUrl": "https://picsum.photos/400",
  "postTitle": "ut voluptatem illum ea doloribus itaque eos",
  "postBody": "voluptates quo voluptatem facilis iure occaecati\nvel assumenda rerum officia et\nillum perspiciatis ab deleniti\nlaudantium repellat ad ut et autem reprehenderit"},
 {"userId": 10,
  "userPfpUrl": "https://mighty.tools/mockmind-api/content/human/74.jpg",
  "postId": 99,
  "postImgUrl": "https://picsum.photos/400",
  "postTitle": "temporibus sit alias delectus eligendi possimus magni",
  "postBody": "quo deleniti praesentium dicta non quod\naut est molestias\nmolestias et officia quis nihil\nitaque dolorem quia"},
 {"userId": 10,
  "userPfpUrl": "https://mighty.tools/mockmind-api/content/human/74.jpg",
  "postId": 91,
  "postImgUrl": "https://picsum.photos/400",
  "postTitle": "aut amet sed",
  "postBody": "libero voluptate eveniet aperiam sed\nsunt placeat suscipit molestias\nsimilique fugit nam natus\nexpedita consequatur consequatur dolores quia eos et placeat"},
 {"userId": 5,
  "userPfpUrl": "https://mighty.tools/mockmind-api/content/human/69.jpg",
  "postId": 41,
  "postImgUrl": "https://picsum.photos/400",
  "postTitle": "non est facere",
  "postBody": "molestias id nostrum\nexcepturi molestiae dolore omnis repellendus quaerat saepe\nconsectetur iste quaerat tenetur asperiores accusamus ex ut\nnam quidem est ducimus sunt debitis saepe"},
 {"userId": 2,
  "userPfpUrl": "https://mighty.tools/mockmind-api/content/human/66.jpg",
  "postId": 15,
  "postImgUrl": "https://picsum.photos/400",
  "postTitle": "eveniet quod temporibus",
  "postBody": "reprehenderit quos placeat\nvelit minima officia dolores impedit repudiandae molestiae nam\nvoluptas recusandae quis delectus\nofficiis harum fugiat vitae"},
 {"userId": 4,
  "userPfpUrl": "https://mighty.tools/mockmind-api/content/human/68.jpg",
  "postId": 39,
  "postImgUrl": "https://picsum.photos/400",
  "postTitle": "eos dolorem iste accusantium est eaque quam",
  "postBody": "corporis rerum ducimus vel eum accusantium\nmaxime aspernatur a porro possimus iste omnis\nest in deleniti asperiores fuga aut\nvoluptas sapiente vel dolore minus voluptatem incidunt ex"},
 {"userId": 4,
  "userPfpUrl": "https://mighty.tools/mockmind-api/content/human/68.jpg",
  "postId": 36,
  "postImgUrl": "https://picsum.photos/400",
  "postTitle": "fuga nam accusamus voluptas reiciendis itaque",
  "postBody": "ad mollitia et omnis minus architecto odit\nvoluptas doloremque maxime aut non ipsa qui alias veniam\nblanditiis culpa aut quia nihil cumque facere et occaecati\nqui aspernatur quia eaque ut aperiam inventore"},
 {"userId": 6,
  "userPfpUrl": "https://mighty.tools/mockmind-api/content/human/70.jpg",
  "postId": 51,
  "postImgUrl": "https://picsum.photos/400",
  "postTitle": "soluta aliquam aperiam consequatur illo quis voluptas",
  "postBody": "sunt dolores aut doloribus\ndolore doloribus voluptates tempora et\ndoloremque et quo\ncum asperiores sit consectetur dolorem"},
 {"userId": 4,
  "userPfpUrl": "https://mighty.tools/mockmind-api/content/human/68.jpg",
  "postId": 38,
  "postImgUrl": "https://picsum.photos/400",
  "postTitle": "explicabo et eos deleniti nostrum ab id repellendus",
  "postBody": "animi esse sit aut sit nesciunt assumenda eum voluptas\nquia voluptatibus provident quia necessitatibus ea\nrerum repudiandae quia voluptatem delectus fugit aut id quia\nratione optio eos iusto veniam iure"},
 {"userId": 8,
  "userPfpUrl": "https://mighty.tools/mockmind-api/content/human/72.jpg",
  "postId": 75,
  "postImgUrl": "https://picsum.photos/400",
  "postTitle": "dignissimos eum dolor ut enim et delectus in",
  "postBody": "commodi non non omnis et voluptas sit\nautem aut nobis magnam et sapiente voluptatem\net laborum repellat qui delectus facilis temporibus\nrerum amet et nemo voluptate expedita adipisci error dolorem"},
 {"userId": 9,
  "userPfpUrl": "https://mighty.tools/mockmind-api/content/human/73.jpg",
  "postId": 83,
  "postImgUrl": "https://picsum.photos/400",
  "postTitle": "odit et voluptates doloribus alias odio et",
  "postBody": "est molestiae facilis quis tempora numquam nihil qui\nvoluptate sapiente consequatur est qui\nnecessitatibus autem aut ipsa aperiam modi dolore numquam\nreprehenderit eius rem quibusdam"},
 {"userId": 9,
  "userPfpUrl": "https://mighty.tools/mockmind-api/content/human/73.jpg",
  "postId": 87,
  "postImgUrl": "https://picsum.photos/400",
  "postTitle": "nostrum quis quasi placeat",
  "postBody": "eos et molestiae\nnesciunt ut a\ndolores perspiciatis repellendus repellat aliquid\nmagnam sint rem ipsum est"},
 {"userId": 7,
  "userPfpUrl": "https://mighty.tools/mockmind-api/content/human/71.jpg",
  "postId": 66,
  "postImgUrl": "https://picsum.photos/400",
  "postTitle": "repudiandae ea animi iusto",
  "postBody": "officia veritatis tenetur vero qui itaque\nsint non ratione\nsed et ut asperiores iusto eos molestiae nostrum\nveritatis quibusdam et nemo iusto saepe"},
 {"userId": 4,
  "userPfpUrl": "https://mighty.tools/mockmind-api/content/human/68.jpg",
  "postId": 31,
  "postImgUrl": "https://picsum.photos/400",
  "postTitle": "ullam ut quidem id aut vel consequuntur",
  "postBody": "debitis eius sed quibusdam non quis consectetur vitae\nimpedit ut qui consequatur sed aut in\nquidem sit nostrum et maiores adipisci atque\nquaerat voluptatem adipisci repudiandae"},
 {"userId": 10,
  "userPfpUrl": "https://mighty.tools/mockmind-api/content/human/74.jpg",
  "postId": 95,
  "postImgUrl": "https://picsum.photos/400",
  "postTitle": "id minus libero illum nam ad officiis",
  "postBody": "earum voluptatem facere provident blanditiis velit laboriosam\npariatur accusamus odio saepe\ncumque dolor qui a dicta ab doloribus consequatur omnis\ncorporis cupiditate eaque assumenda ad nesciunt"},
 {"userId": 2,
  "userPfpUrl": "https://mighty.tools/mockmind-api/content/human/66.jpg",
  "postId": 14,
  "postImgUrl": "https://picsum.photos/400",
  "postTitle": "voluptatem eligendi optio",
  "postBody": "fuga et accusamus dolorum perferendis illo voluptas\nnon doloremque neque facere\nad qui dolorum molestiae beatae\nsed aut voluptas totam sit illum"},
 {"userId": 1,
  "userPfpUrl": "https://mighty.tools/mockmind-api/content/human/65.jpg",
  "postId": 8,
  "postImgUrl": "https://picsum.photos/400",
  "postTitle": "dolorem dolore est ipsam",
  "postBody": "dignissimos aperiam dolorem qui eum\nfacilis quibusdam animi sint suscipit qui sint possimus cum\nquaerat magni maiores excepturi\nipsam ut commodi dolor voluptatum modi aut vitae"},
 {"userId": 4,
  "userPfpUrl": "https://mighty.tools/mockmind-api/content/human/68.jpg",
  "postId": 32,
  "postImgUrl": "https://picsum.photos/400",
  "postTitle": "doloremque illum aliquid sunt",
  "postBody": "deserunt eos nobis asperiores et hic\nest debitis repellat molestiae optio\nnihil ratione ut eos beatae quibusdam distinctio maiores\nearum voluptates et aut adipisci ea maiores voluptas maxime"},
 {"userId": 2,
  "userPfpUrl": "https://mighty.tools/mockmind-api/content/human/66.jpg",
  "postId": 13,
  "postImgUrl": "https://picsum.photos/400",
  "postTitle": "dolorum ut in voluptas mollitia et saepe quo animi",
  "postBody": "aut dicta possimus sint mollitia voluptas commodi quo doloremque\niste corrupti reiciendis voluptatem eius rerum\nsit cumque quod eligendi laborum minima\nperferendis recusandae assumenda consectetur porro architecto ipsum ipsam"},
 {"userId": 8,
  "userPfpUrl": "https://mighty.tools/mockmind-api/content/human/72.jpg",
  "postId": 72,
  "postImgUrl": "https://picsum.photos/400",
  "postTitle": "sint hic doloribus consequatur eos non id",
  "postBody": "quam occaecati qui deleniti consectetur\nconsequatur aut facere quas exercitationem aliquam hic voluptas\nneque id sunt ut aut accusamus\nsunt consectetur expedita inventore velit"},
 {"userId": 9,
  "userPfpUrl": "https://mighty.tools/mockmind-api/content/human/73.jpg",
  "postId": 88,
  "postImgUrl": "https://picsum.photos/400",
  "postTitle": "sapiente omnis fugit eos",
  "postBody": "consequatur omnis est praesentium\nducimus non iste\nneque hic deserunt\nvoluptatibus veniam cum et rerum sed"},
 {"userId": 3,
  "userPfpUrl": "https://mighty.tools/mockmind-api/content/human/67.jpg",
  "postId": 27,
  "postImgUrl": "https://picsum.photos/400",
  "postTitle": "quasi id et eos tenetur aut quo autem",
  "postBody": "eum sed dolores ipsam sint possimus debitis occaecati\ndebitis qui qui et\nut placeat enim earum aut odit facilis\nconsequatur suscipit necessitatibus rerum sed inventore temporibus consequatur"},
 {"userId": 10,
  "userPfpUrl": "https://mighty.tools/mockmind-api/content/human/74.jpg",
  "postId": 94,
  "postImgUrl": "https://picsum.photos/400",
  "postTitle": "qui qui voluptates illo iste minima",
  "postBody": "aspernatur expedita soluta quo ab ut similique\nexpedita dolores amet\nsed temporibus distinctio magnam saepe deleniti\nomnis facilis nam ipsum natus sint similique omnis"},
 {"userId": 6,
  "userPfpUrl": "https://mighty.tools/mockmind-api/content/human/70.jpg",
  "postId": 55,
  "postImgUrl": "https://picsum.photos/400",
  "postTitle": "sit vel voluptatem et non libero",
  "postBody": "debitis excepturi ea perferendis harum libero optio\neos accusamus cum fuga ut sapiente repudiandae\net ut incidunt omnis molestiae\nnihil ut eum odit"},
 {"userId": 7,
  "userPfpUrl": "https://mighty.tools/mockmind-api/content/human/71.jpg",
  "postId": 69,
  "postImgUrl": "https://picsum.photos/400",
  "postTitle": "fugiat quod pariatur odit minima",
  "postBody": "officiis error culpa consequatur modi asperiores et\ndolorum assumenda voluptas et vel qui aut vel rerum\nvoluptatum quisquam perspiciatis quia rerum consequatur totam quas\nsequi commodi repudiandae asperiores et saepe a"},
 {"userId": 3,
  "userPfpUrl": "https://mighty.tools/mockmind-api/content/human/67.jpg",
  "postId": 22,
  "postImgUrl": "https://picsum.photos/400",
  "postTitle": "dolor sint quo a velit explicabo quia nam",
  "postBody": "eos qui et ipsum ipsam suscipit aut\nsed omnis non odio\nexpedita earum mollitia molestiae aut atque rem suscipit\nnam impedit esse"},
 {"userId": 9,
  "userPfpUrl": "https://mighty.tools/mockmind-api/content/human/73.jpg",
  "postId": 89,
  "postImgUrl": "https://picsum.photos/400",
  "postTitle": "sint soluta et vel magnam aut ut sed qui",
  "postBody": "repellat aut aperiam totam temporibus autem et\narchitecto magnam ut\nconsequatur qui cupiditate rerum quia soluta dignissimos nihil iure\ntempore quas est"},
 {"userId": 5,
  "userPfpUrl": "https://mighty.tools/mockmind-api/content/human/69.jpg",
  "postId": 49,
  "postImgUrl": "https://picsum.photos/400",
  "postTitle": "laborum non sunt aut ut assumenda perspiciatis voluptas",
  "postBody": "inventore ab sint\nnatus fugit id nulla sequi architecto nihil quaerat\neos tenetur in in eum veritatis non\nquibusdam officiis aspernatur cumque aut commodi aut"},
 {"userId": 2,
  "userPfpUrl": "https://mighty.tools/mockmind-api/content/human/66.jpg",
  "postId": 20,
  "postImgUrl": "https://picsum.photos/400",
  "postTitle": "doloribus ad provident suscipit at",
  "postBody": "qui consequuntur ducimus possimus quisquam amet similique\nsuscipit porro ipsam amet\neos veritatis officiis exercitationem vel fugit aut necessitatibus totam\nomnis rerum consequatur expedita quidem cumque explicabo"},
 {"userId": 9,
  "userPfpUrl": "https://mighty.tools/mockmind-api/content/human/73.jpg",
  "postId": 84,
  "postImgUrl": "https://picsum.photos/400",
  "postTitle": "optio ipsam molestias necessitatibus occaecati facilis veritatis dolores aut",
  "postBody": "sint molestiae magni a et quos\neaque et quasi\nut rerum debitis similique veniam\nrecusandae dignissimos dolor incidunt consequatur odio"},
 {"userId": 8,
  "userPfpUrl": "https://mighty.tools/mockmind-api/content/human/72.jpg",
  "postId": 80,
  "postImgUrl": "https://picsum.photos/400",
  "postTitle": "labore in ex et explicabo corporis aut quas",
  "postBody": "ex quod dolorem ea eum iure qui provident amet\nquia qui facere excepturi et repudiandae\nasperiores molestias provident\nminus incidunt vero fugit rerum sint sunt excepturi provident"},
 {"userId": 9,
  "userPfpUrl": "https://mighty.tools/mockmind-api/content/human/73.jpg",
  "postId": 90,
  "postImgUrl": "https://picsum.photos/400",
  "postTitle": "ad iusto omnis odit dolor voluptatibus",
  "postBody": "minus omnis soluta quia\nqui sed adipisci voluptates illum ipsam voluptatem\neligendi officia ut in\neos soluta similique molestias praesentium blanditiis"},
 {"userId": 1,
  "userPfpUrl": "https://mighty.tools/mockmind-api/content/human/65.jpg",
  "postId": 10,
  "postImgUrl": "https://picsum.photos/400",
  "postTitle": "optio molestias id quia eum",
  "postBody": "quo et expedita modi cum officia vel magni\ndoloribus qui repudiandae\nvero nisi sit\nquos veniam quod sed accusamus veritatis error"},
 {"userId": 7,
  "userPfpUrl": "https://mighty.tools/mockmind-api/content/human/71.jpg",
  "postId": 62,
  "postImgUrl": "https://picsum.photos/400",
  "postTitle": "beatae enim quia vel",
  "postBody": "enim aspernatur illo distinctio quae praesentium\nbeatae alias amet delectus qui voluptate distinctio\nodit sint accusantium autem omnis\nquo molestiae omnis ea eveniet optio"},
 {"userId": 6,
  "userPfpUrl": "https://mighty.tools/mockmind-api/content/human/70.jpg",
  "postId": 59,
  "postImgUrl": "https://picsum.photos/400",
  "postTitle": "qui commodi dolor at maiores et quis id accusantium",
  "postBody": "perspiciatis et quam ea autem temporibus non voluptatibus qui\nbeatae a earum officia nesciunt dolores suscipit voluptas et\nanimi doloribus cum rerum quas et magni\net hic ut ut commodi expedita sunt"},
 {"userId": 5,
  "userPfpUrl": "https://mighty.tools/mockmind-api/content/human/69.jpg",
  "postId": 42,
  "postImgUrl": "https://picsum.photos/400",
  "postTitle": "commodi ullam sint et excepturi error explicabo praesentium voluptas",
  "postBody": "odio fugit voluptatum ducimus earum autem est incidunt voluptatem\nodit reiciendis aliquam sunt sequi nulla dolorem\nnon facere repellendus voluptates quia\nratione harum vitae ut"},
 {"userId": 2,
  "userPfpUrl": "https://mighty.tools/mockmind-api/content/human/66.jpg",
  "postId": 17,
  "postImgUrl": "https://picsum.photos/400",
  "postTitle": "fugit voluptas sed molestias voluptatem provident",
  "postBody": "eos voluptas et aut odit natus earum\naspernatur fuga molestiae ullam\ndeserunt ratione qui eos\nqui nihil ratione nemo velit ut aut id quo"},
 {"userId": 8,
  "userPfpUrl": "https://mighty.tools/mockmind-api/content/human/72.jpg",
  "postId": 71,
  "postImgUrl": "https://picsum.photos/400",
  "postTitle": "et iusto veniam et illum aut fuga",
  "postBody": "occaecati a doloribus\niste saepe consectetur placeat eum voluptate dolorem et\nqui quo quia voluptas\nrerum ut id enim velit est perferendis"},
 {"userId": 7,
  "userPfpUrl": "https://mighty.tools/mockmind-api/content/human/71.jpg",
  "postId": 64,
  "postImgUrl": "https://picsum.photos/400",
  "postTitle": "et fugit quas eum in in aperiam quod",
  "postBody": "id velit blanditiis\neum ea voluptatem\nmolestiae sint occaecati est eos perspiciatis\nincidunt a error provident eaque aut aut qui"},
 {"userId": 1,
  "userPfpUrl": "https://mighty.tools/mockmind-api/content/human/65.jpg",
  "postId": 4,
  "postImgUrl": "https://picsum.photos/400",
  "postTitle": "eum et est occaecati",
  "postBody": "ullam et saepe reiciendis voluptatem adipisci\nsit amet autem assumenda provident rerum culpa\nquis hic commodi nesciunt rem tenetur doloremque ipsam iure\nquis sunt voluptatem rerum illo velit"},
 {"userId": 8,
  "userPfpUrl": "https://mighty.tools/mockmind-api/content/human/72.jpg",
  "postId": 74,
  "postImgUrl": "https://picsum.photos/400",
  "postTitle": "enim unde ratione doloribus quas enim ut sit sapiente",
  "postBody": "odit qui et et necessitatibus sint veniam\nmollitia amet doloremque molestiae commodi similique magnam et quam\nblanditiis est itaque\nquo et tenetur ratione occaecati molestiae tempora"},
 {"userId": 7,
  "userPfpUrl": "https://mighty.tools/mockmind-api/content/human/71.jpg",
  "postId": 67,
  "postImgUrl": "https://picsum.photos/400",
  "postTitle": "aliquid eos sed fuga est maxime repellendus",
  "postBody": "reprehenderit id nostrum\nvoluptas doloremque pariatur sint et accusantium quia quod aspernatur\net fugiat amet\nnon sapiente et consequatur necessitatibus molestiae"},
 {"userId": 6,
  "userPfpUrl": "https://mighty.tools/mockmind-api/content/human/70.jpg",
  "postId": 60,
  "postImgUrl": "https://picsum.photos/400",
  "postTitle": "consequatur placeat omnis quisquam quia reprehenderit fugit veritatis facere",
  "postBody": "asperiores sunt ab assumenda cumque modi velit\nqui esse omnis\nvoluptate et fuga perferendis voluptas\nillo ratione amet aut et omnis"},
 {"userId": 10,
  "userPfpUrl": "https://mighty.tools/mockmind-api/content/human/74.jpg",
  "postId": 100,
  "postImgUrl": "https://picsum.photos/400",
  "postTitle": "at nam consequatur ea labore ea harum",
  "postBody": "cupiditate quo est a modi nesciunt soluta\nipsa voluptas error itaque dicta in\nautem qui minus magnam et distinctio eum\naccusamus ratione error aut"},
 {"userId": 4,
  "userPfpUrl": "https://mighty.tools/mockmind-api/content/human/68.jpg",
  "postId": 37,
  "postImgUrl": "https://picsum.photos/400",
  "postTitle": "provident vel ut sit ratione est",
  "postBody": "debitis et eaque non officia sed nesciunt pariatur vel\nvoluptatem iste vero et ea\nnumquam aut expedita ipsum nulla in\nvoluptates omnis consequatur aut enim officiis in quam qui"},
 {"userId": 8,
  "userPfpUrl": "https://mighty.tools/mockmind-api/content/human/72.jpg",
  "postId": 79,
  "postImgUrl": "https://picsum.photos/400",
  "postTitle": "pariatur consequatur quia magnam autem omnis non amet",
  "postBody": "libero accusantium et et facere incidunt sit dolorem\nnon excepturi qui quia sed laudantium\nquisquam molestiae ducimus est\nofficiis esse molestiae iste et quos"},
 {"userId": 4,
  "userPfpUrl": "https://mighty.tools/mockmind-api/content/human/68.jpg",
  "postId": 40,
  "postImgUrl": "https://picsum.photos/400",
  "postTitle": "enim quo cumque",
  "postBody": "ut voluptatum aliquid illo tenetur nemo sequi quo facilis\nipsum rem optio mollitia quas\nvoluptatem eum voluptas qui\nunde omnis voluptatem iure quasi maxime voluptas nam"},
 {"userId": 10,
  "userPfpUrl": "https://mighty.tools/mockmind-api/content/human/74.jpg",
  "postId": 98,
  "postImgUrl": "https://picsum.photos/400",
  "postTitle": "laboriosam dolor voluptates",
  "postBody": "doloremque ex facilis sit sint culpa\nsoluta assumenda eligendi non ut eius\nsequi ducimus vel quasi\nveritatis est dolores"},
 {"userId": 8,
  "userPfpUrl": "https://mighty.tools/mockmind-api/content/human/72.jpg",
  "postId": 77,
  "postImgUrl": "https://picsum.photos/400",
  "postTitle": "necessitatibus quasi exercitationem odio",
  "postBody": "modi ut in nulla repudiandae dolorum nostrum eos\naut consequatur omnis\nut incidunt est omnis iste et quam\nvoluptates sapiente aliquam asperiores nobis amet corrupti repudiandae provident"},
 {"userId": 10,
  "userPfpUrl": "https://mighty.tools/mockmind-api/content/human/74.jpg",
  "postId": 92,
  "postImgUrl": "https://picsum.photos/400",
  "postTitle": "ratione ex tenetur perferendis",
  "postBody": "aut et excepturi dicta laudantium sint rerum nihil\nlaudantium et at\na neque minima officia et similique libero et\ncommodi voluptate qui"},
 {"userId": 5,
  "userPfpUrl": "https://mighty.tools/mockmind-api/content/human/69.jpg",
  "postId": 43,
  "postImgUrl": "https://picsum.photos/400",
  "postTitle": "eligendi iste nostrum consequuntur adipisci praesentium sit beatae perferendis",
  "postBody": "similique fugit est\nillum et dolorum harum et voluptate eaque quidem\nexercitationem quos nam commodi possimus cum odio nihil nulla\ndolorum exercitationem magnam ex et a et distinctio debitis"},
 {"userId": 2,
  "userPfpUrl": "https://mighty.tools/mockmind-api/content/human/66.jpg",
  "postId": 11,
  "postImgUrl": "https://picsum.photos/400",
  "postTitle": "et ea vero quia laudantium autem",
  "postBody": "delectus reiciendis molestiae occaecati non minima eveniet qui voluptatibus\naccusamus in eum beatae sit\nvel qui neque voluptates ut commodi qui incidunt\nut animi commodi"},
 {"userId": 4,
  "userPfpUrl": "https://mighty.tools/mockmind-api/content/human/68.jpg",
  "postId": 33,
  "postImgUrl": "https://picsum.photos/400",
  "postTitle": "qui explicabo molestiae dolorem",
  "postBody": "rerum ut et numquam laborum odit est sit\nid qui sint in\nquasi tenetur tempore aperiam et quaerat qui in\nrerum officiis sequi cumque quod"},
 {"userId": 3,
  "userPfpUrl": "https://mighty.tools/mockmind-api/content/human/67.jpg",
  "postId": 21,
  "postImgUrl": "https://picsum.photos/400",
  "postTitle": "asperiores ea ipsam voluptatibus modi minima quia sint",
  "postBody": "repellat aliquid praesentium dolorem quo\nsed totam minus non itaque\nnihil labore molestiae sunt dolor eveniet hic recusandae veniam\ntempora et tenetur expedita sunt"},
 {"userId": 9,
  "userPfpUrl": "https://mighty.tools/mockmind-api/content/human/73.jpg",
  "postId": 82,
  "postImgUrl": "https://picsum.photos/400",
  "postTitle": "laudantium voluptate suscipit sunt enim enim",
  "postBody": "ut libero sit aut totam inventore sunt\nporro sint qui sunt molestiae\nconsequatur cupiditate qui iste ducimus adipisci\ndolor enim assumenda soluta laboriosam amet iste delectus hic"},
 {"userId": 7,
  "userPfpUrl": "https://mighty.tools/mockmind-api/content/human/71.jpg",
  "postId": 68,
  "postImgUrl": "https://picsum.photos/400",
  "postTitle": "odio quis facere architecto reiciendis optio",
  "postBody": "magnam molestiae perferendis quisquam\nqui cum reiciendis\nquaerat animi amet hic inventore\nea quia deleniti quidem saepe porro velit"},
 {"userId": 5,
  "userPfpUrl": "https://mighty.tools/mockmind-api/content/human/69.jpg",
  "postId": 45,
  "postImgUrl": "https://picsum.photos/400",
  "postTitle": "ut numquam possimus omnis eius suscipit laudantium iure",
  "postBody": "est natus reiciendis nihil possimus aut provident\nex et dolor\nrepellat pariatur est\nnobis rerum repellendus dolorem autem"}]